{"pageProps":{"products":{"data":[{"id":1,"attributes":{"title":"Blauzdos (žemiau kelio) protezai su vakuuminio tvirtinimo sistema","typeGroup":"KPM2-2","type":"KPM2-2","description":"Nuolatinis blauzdos protezas. Skiriamas esant blauzdos ir pėdos\nnebuvimui. Naudojamas kaip blauzdos ir pėdos pakaitalas.\nBlauzdos bigės laikiklis gaminamas iš laminuotos dervos. Su\nsilikoninė arba gėlinė mova, panaudojant dinaminio vakuuminio\ntvirtinimo sistemą. Kompensuoja galūnės nebuvimą aukščiau kelio.\nAtkuria atramos ir judėjimo funkciją.","price":6458.82,"prices":null,"slug":"blauzdos-zemiau-kelio-protezai-su-vakuuminio-tvirtinimo-sistema-KPM2-2","isNew":null,"individualyMade":null,"createdAt":"2023-03-11T23:08:07.640Z","updatedAt":"2023-04-02T15:55:24.734Z","publishedAt":"2023-03-11T23:08:08.923Z"}},{"id":2,"attributes":{"title":"Krūtinės-juosmens įtvaras","typeGroup":"KR0-9-3","type":"KR0-9-3","description":"Gaminamas individualiai iš termoplastinių medžiagų ir (ar) anglies\npluošto, užsegamas. Kraštai apdirbami taip, kad apsaugotų nuo\ntrinties. Imobilizuoja stuburo krūtininę ir juosmeninę dalis","price":176.64,"prices":null,"slug":"krutines-juosmens-itvaras-KR0-9-3","isNew":null,"individualyMade":null,"createdAt":"2023-03-14T22:00:27.530Z","updatedAt":"2023-04-02T15:55:46.281Z","publishedAt":"2023-03-14T22:00:28.365Z"}},{"id":3,"attributes":{"title":"Alkūnės-riešo įtvaras","typeGroup":"RT4","type":"RT4","description":"Gaminamas individualiai iš termoplastinių medžiagų ir (ar) anglies\npluošto, užsegamas. Kraštai apdirbami taip, kad apsaugotų nuo\ntrinties. Imobilizuoja alkūnės sąnarį","price":104.78,"prices":null,"slug":"alkunes-rieso-itvaras-RT4","isNew":null,"individualyMade":null,"createdAt":"2023-03-14T22:54:26.128Z","updatedAt":"2023-03-20T20:31:13.447Z","publishedAt":"2023-03-14T22:54:27.088Z"}},{"id":4,"attributes":{"title":"Kulkšnies-pėdos įtvaras","typeGroup":"KT1","type":"KT1","description":"Gaminamas individualiai iš termoplastinių medžiagų ir (ar) anglies\npluošto, užsegamas. Kraštai apdirbami taip, kad apsaugotų nuo\ntrinties. Įtvaras apima tam tikras blauzdos ir pėdos dalis.\nImobilizuoja čiurnos sąnarį","price":129.23,"prices":null,"slug":"kulksnies-pedos-itvaras-KT1","isNew":null,"individualyMade":null,"createdAt":"2023-03-14T23:17:52.809Z","updatedAt":"2023-03-20T20:35:18.384Z","publishedAt":"2023-03-14T23:19:00.244Z"}},{"id":5,"attributes":{"title":"Dinaminis anglies pluošto kulkšnies-pėdos įtvaras","typeGroup":"KT1-3","type":"KT1-3","description":"Gaminamas ant individualaus gipsinio modelio iš anglies pluošto ir kitų\nkompozitinių medžiagų (su paminkštinimu iš vidinės pusės blauzdos\ndalyje), apima blauzdą ir pėdą. Įtvaras kombinuojamas su pėdos įtvaru,\ngaminamu pagal paciento antropometrinius ir anatominiusfiziologinius pėdos duomenis. Pėdos įtvaras yra su įduba kulno dalyje,\nsuformuotu išilginiu skliautu ir (ar) aukštais kraštais. Priekyje yra\nsutvirtinimas ties kelio sąnariu","price":690.64,"prices":null,"slug":" dinaminis-anglies-pluosto-kulksnies-pedos-itvaras-KT1-3","isNew":true,"individualyMade":null,"createdAt":"2023-03-15T00:09:32.341Z","updatedAt":"2023-03-24T18:47:49.718Z","publishedAt":"2023-03-15T00:09:35.141Z"}},{"id":6,"attributes":{"title":"Dilbio (žemiau alkūnės) protezas","typeGroup":"RP1-8","type":"RP1-8","description":"Kosmetinis dilbio protezas. Gaminamas individualiai. Bigės\nėmiklis gaminamas iš termoplastinių medžiagų, laminuotos dervos\nir (ar) odos (su minkštu įdėklu arba be jo). Dirbtinė plaštaka ir\napdaila bei tvirtinimo priemonės parenkamos individualiai","price":951.98,"prices":null,"slug":"dilbio-zemiau-alkunes-protezas-RP1-8","isNew":null,"individualyMade":null,"createdAt":"2023-03-16T20:19:08.870Z","updatedAt":"2023-03-20T19:01:14.616Z","publishedAt":"2023-03-16T20:19:10.052Z"}},{"id":7,"attributes":{"title":"Dilbio (žemiau alkūnės) protezas","typeGroup":"RP1-9","type":"RP1-9","description":"Darbinis dilbio protezas. Gaminamas individualiai. Bigės ėmiklis\ngaminamas iš odos, termoplastinių medžiagų ir (ar) laminuotos\ndervos (su minkštu įdėklu arba be jo). Dirbtinė plaštaka ir apdaila\nparenkamos individualiai. Tvirtinama naudojant silikoninį įdėklą\n(įdėklas fiksuojamas spynele) ir (ar) kitomis pagalbinėmis\npriemonėmis. Valdoma diržais","price":1448.1,"prices":null,"slug":"dilbio-zemiau-alkunes-protezas-RP1-9","isNew":null,"individualyMade":null,"createdAt":"2023-03-16T21:27:14.450Z","updatedAt":"2023-03-20T19:02:15.548Z","publishedAt":"2023-03-16T21:27:15.496Z"}},{"id":8,"attributes":{"title":"Žastikaulio (virš alkūnės) protezas","typeGroup":"RP2-4","type":"RP2-4","description":"Kosmetinis žastikaulio protezas. Gaminamas individualiai. Bigės\nėmiklis gaminamas iš odos, termoplastinių medžiagų ir (ar)\nlaminuotos dervos (su minkštu įdėklu arba be jo). Dirbtinis alkūnės\nsąnarys, dirbtinė plaštaka ir apdaila parenkami individualiai.\nTvirtinama diržais. Alkūnės sąnarys – nelankstus","price":1563.95,"prices":null,"slug":"zastikaulio-virs-alkunes-protezas-RP2-4","isNew":null,"individualyMade":null,"createdAt":"2023-03-16T21:28:34.541Z","updatedAt":"2023-03-20T19:03:43.028Z","publishedAt":"2023-03-16T21:28:36.011Z"}},{"id":9,"attributes":{"title":"Žastikaulio (virš alkūnės) protezas","typeGroup":"RP2-5","type":"RP2-5","description":"Darbinis žastikaulio protezas. Gaminamas individualiai. Bigės\nėmiklis gaminamas iš odos, termoplastinių medžiagų ir (ar)\nlaminuotos dervos (su minkštu įdėklu arba be jo). Dirbtinis alkūnės\nsąnarys, dirbtinė plaštaka ir apdaila parenkami individualiai.\nTvirtinama ir valdoma diržais","price":2949.74,"prices":null,"slug":"zastikaulio-virs-alkunes-protezas-RP2-5","isNew":null,"individualyMade":null,"createdAt":"2023-03-16T21:30:08.621Z","updatedAt":"2023-04-02T15:56:11.362Z","publishedAt":"2023-03-16T21:30:09.886Z"}},{"id":10,"attributes":{"title":"Blauzdos (žemiau kelio) protezas","typeGroup":"KP2-7","type":"KP2-7","description":"Nuolatinis blauzdos protezas. Skiriamas esant blauzdos ir pėdos\nnebuvimui. Naudojamas kaip blauzdos ir pėdos pakaitalas.\nBlauzdos bigės laikiklis gaminamas iš laminuotos dervos,\ntvirtinamas silikoniniu įdėklu1\n, kuris fiksuojamas užraktu arba\nvakuuminiu būdu, panaudojant statinio vakuuminio tvirtinimo\nsistemą. Kompensuoja galūnės nebuvimą aukščiau kelio. Atkuria\natramos ir judėjimo funkciją.","price":1951.58,"prices":null,"slug":"blauzdos-zemiau-kelio-protezas-KP2-7","isNew":null,"individualyMade":null,"createdAt":"2023-03-16T21:31:25.913Z","updatedAt":"2023-03-20T20:41:33.024Z","publishedAt":"2023-03-16T21:31:27.182Z"}},{"id":11,"attributes":{"title":"Blauzdos (žemiau kelio) protezas","typeGroup":" KP2-9-2","type":" KP2-9-2","description":"Pirminis (mokomasis) blauzdos protezas. Skiriamas esant blauzdos\nir pėdos nebuvimui. Naudojamas kaip blauzdos ir pėdos pakaitalas.\nBlauzdos bigės laikiklis gaminamas iš termoplastinių medžiagų.\nTvirtinamas minkštu įdėklu, gamintojo rekomenduojamu mažo ar\nvidutinio mobilumo pacientams. Kompensuoja galūnės nebuvimą\naukščiau kelio. Atkuria atramos ir judėjimo funkciją.","price":743.45,"prices":null,"slug":"blauzdos-zemiau-kelio-protezas-KP2-9-2","isNew":true,"individualyMade":null,"createdAt":"2023-03-16T21:33:15.160Z","updatedAt":"2023-03-24T18:48:14.362Z","publishedAt":"2023-03-16T21:33:16.336Z"}},{"id":12,"attributes":{"title":"Blauzdos (žemiau kelio) protezas","typeGroup":"KPM2-1","type":"KPM2-1","description":"Nuolatinis blauzdos protezas. Skiriamas esant blauzdos ir pėdos\nnebuvimui. Naudojamas kaip blauzdos ir pėdos pakaitalas.\nBlauzdos bigės laikiklis gaminamas iš odos, termoplastinių\nmedžiagų ir (ar) laminuotos dervos. Tvirtinamas minkštu įdėklu,\ngamintojo rekomenduojamu mažo ar vidutinio mobilumo\npacientams. Kompensuoja galūnės nebuvimą žemiau kelio. Atkuria\natramos ir judėjimo funkciją.","price":1183.38,"prices":null,"slug":"blauzdos-zemiau-kelio-protezas-KPM2-1","isNew":null,"individualyMade":null,"createdAt":"2023-03-16T21:39:31.063Z","updatedAt":"2023-03-20T20:43:46.900Z","publishedAt":"2023-03-16T21:39:32.229Z"}},{"id":13,"attributes":{"title":"Šlaunies (virš kelio) protezas","typeGroup":"KPM3-1","type":"KPM3-1","description":"Nuolatinis šlaunies protezas. Skiriamas esant kojos aukščiau kelio\nnebuvimui. Naudojamas kaip šlaunies, blauzdos ir pėdos\npakaitalas. Šlaunies bigės laikiklis gaminamas iš laminuotos dervos\narba termoplastinių medžiagų, su minkštu įdėklu arba be jo.\nKompensuoja galūnės nebuvimą žemiau kelio. Atkuria atramos ir\njudėjimo funkciją.","price":2468.78,"prices":null,"slug":"slaunies-virs-kelio-protezas-KPM3-1","isNew":null,"individualyMade":null,"createdAt":"2023-03-16T21:40:46.121Z","updatedAt":"2023-03-20T20:45:18.384Z","publishedAt":"2023-03-16T21:40:46.878Z"}},{"id":14,"attributes":{"title":"Šlaunies (virš kelio) protezas","typeGroup":"KP3-6-1","type":"KP3-6-1","description":"Pirminis (mokomasis) šlaunies protezas. Skiriamas esant kojos\naukščiau kelio nebuvimui. Naudojamas kaip šlaunies, blauzdos ir\npėdos pakaitalas. Šlaunies bigės laikiklis gaminamas iš\ntermoplastinių medžiagų, su minkštu įdėklu arba be jo.\nKompensuoja galūnės nebuvimą žemiau kelio. Atkuria atramos ir\njudėjimo funkciją.","price":1491.63,"prices":null,"slug":"slaunies-virs-kelio-protezas-KP3-6-1","isNew":null,"individualyMade":null,"createdAt":"2023-03-16T21:41:59.490Z","updatedAt":"2023-03-20T20:47:15.688Z","publishedAt":"2023-03-16T21:42:00.525Z"}},{"id":15,"attributes":{"title":"Šlaunies (virš kelio) protezai su hidrauliniu kelio sąnariu ir aktyvia pėda","typeGroup":"KPM3-4","type":"KPM3-4","description":"Nuolatinis šlaunies protezas. Skiriamas esant kojos aukščiau kelio\nnebuvimui. Naudojamas kaip šlaunies, blauzdos ir pėdos pakaitalas.\nŠlaunies bigės laikiklis gaminamas iš laminuotos dervos arba\ntermoplastinių medžiagų, su minkštu įdėklu arba be jo. Moduliai\ngaminami iš titano arba plieno, individualiai pritaikomas ir parenkamas\nhidraulinis kelio sąnarys. Tvirtinimas – vakuminis ir (ar) diržais.\nKompensuoja galūnės nebuvimą aukščiau kelio. Atkuria atramos ir\njudėjimo funkciją. Šlaunies protezas su hidrauliniu kelio sąnariu užtikrina\nnevaržomą dinaminį judėjimą, aktyvų gyvenimo būdą. Judėjimo aplinka,\ntrukmė ir atstumas tampa neriboti.","price":7993.78,"prices":null,"slug":"slaunies-virs-kelio-protezai-su-hidrauliniu-kelio-sanariu-ir-aktyvia-peda","isNew":null,"individualyMade":null,"createdAt":"2023-03-16T21:44:08.583Z","updatedAt":"2023-03-20T20:48:47.920Z","publishedAt":"2023-03-16T21:45:17.880Z"}},{"id":16,"attributes":{"title":"Dubens dalies protezas","typeGroup":"KPM42","type":"KPM4-2","description":"Nuolatinis dubens dalies protezas. Gaminamas individualiai. Bigės\nėmiklis gaminamas iš laminuotos dervos ir (ar) termoplastinių\nmedžiagų (su minkštu įdėklu arba be jo. Dirbtinis klubo sąnarys\ngali būti fiksuotas arba laisvas. Dubens dalies protezas naudojamas\nkaip kojos pakaitalas. Atkuria atramos ir judėjimo funkciją.","price":3275.1,"prices":null,"slug":"dubens-dalies-protezas-KPM4-2","isNew":null,"individualyMade":null,"createdAt":"2023-03-18T07:59:42.828Z","updatedAt":"2023-03-20T20:50:09.960Z","publishedAt":"2023-03-18T07:59:43.778Z"}},{"id":17,"attributes":{"title":"Riešo-plaštakos-pirštų įtvaras","typeGroup":"RT1-9","type":"RT1-9","description":"Gaminamas individualiai iš termoplastinių medžiagų ir (ar)\nanglies pluošto, užsegamas. Kraštai apdirbami taip, kad\napsaugotų nuo trinties. Imobilizuoja riešo sąnarį ir plaštaką.","price":62.12,"prices":null,"slug":"rieso-plastakos-pirstu-itvaras-RT1-9","isNew":null,"individualyMade":null,"createdAt":"2023-03-18T08:04:20.415Z","updatedAt":"2023-03-20T20:51:49.129Z","publishedAt":"2023-03-18T08:04:21.399Z"}},{"id":18,"attributes":{"title":"Alkūnės įtvaras","typeGroup":"RT3-1-2","type":"RT3-1-2","description":"Gaminamas individualiai iš termoplastinių medžiagų ir (ar) anglies\npluošto, užsegamas. Kraštai apdirbami taip, kad apsaugotų nuo\ntrinties. Imobilizuoja riešo sąnarį ir plaštaką.","price":253.1,"prices":null,"slug":"alkunes-itvaras- RT3-1-2","isNew":null,"individualyMade":null,"createdAt":"2023-03-18T08:08:21.282Z","updatedAt":"2023-03-20T20:54:43.384Z","publishedAt":"2023-03-18T08:08:22.194Z"}},{"id":19,"attributes":{"title":"Kulkšnies-pėdos įtvaras","typeGroup":"KT1-1","type":"KT1-1","description":"Gaminamas iš termoplastinių medžiagų ir (ar) anglies pluošto pagal\nindividualų arba individualiai pritaikomą modelį, užsegamas. Kraštai\napdirbami taip, kad apsaugotų nuo trinties. Kulkšnies-pėdos įtvaras\napima tam tikras blauzdos ir pėdos dalis. Gali būti gaminamas taikant\npapildomus šoninius sutvirtinimus arba įtvaro pėdos ir blauzdos dalis\nsujungiant lankstais. Įtvaras fiksuoja čiurnos sąnarį, nevaržydamas\nlenkimo ir tiesimo funkcijų, arba imobilizuoja čiurnos sąnarį.","price":170.39,"prices":null,"slug":"kulksnies-pedos-itvaras-KT1-1","isNew":true,"individualyMade":null,"createdAt":"2023-03-18T08:15:10.951Z","updatedAt":"2023-03-24T18:48:41.617Z","publishedAt":"2023-03-18T08:15:12.001Z"}},{"id":20,"attributes":{"title":"Kulkšnies-pėdos įtvaras (tik vaikams)","typeGroup":"KT1 (tik vaikams)","type":"KT1 (tik vaikams)","description":"Gaminamas individualiai iš termoplastinių medžiagų ir (ar) anglies\npluošto, užsegamas. Kraštai apdirbami taip, kad apsaugotų nuo trinties.\nĮtvaras apima tam tikras blauzdos ir pėdos dalis. Imobilizuoja čiurnos\nsąnarį.","price":114.64,"prices":null,"slug":"kulksnies-pedos-itvaras-tik-vaikams-KT1-tik-vaikams","isNew":null,"individualyMade":null,"createdAt":"2023-03-18T08:18:17.344Z","updatedAt":"2023-03-20T21:04:10.961Z","publishedAt":"2023-03-18T08:18:18.286Z"}},{"id":21,"attributes":{"title":"Kelio įtvaras","typeGroup":"KA3-4","type":"KA3-4","description":"Gaminamas ant individualaus gipsinio modelio iš termoplastinių\nmedžiagų ir (ar) anglies pluošto (su paminkštinimu iš vidinės pusės arba\nbe jo), apima šlaunį ir blauzdą, užsegamas. Kraštai apdirbami taip, kad\napsaugotų nuo trinties. Termoplastinės dalys tarpusavyje sujungiamos\nlankstais (2 vnt., su kampo reguliavimo funkcija), tvirtinamais\nmedialinėje ir lateralinėje kelio sąnario pusėse. Fiksuoja ar imobilizuoja\nkelio sąnarį reikiamu kampu arba riboja judesio amplitudę.","price":236.2,"prices":null,"slug":"kelio-itvaras-KA3-4","isNew":null,"individualyMade":null,"createdAt":"2023-03-18T08:22:24.049Z","updatedAt":"2023-03-20T21:07:20.365Z","publishedAt":"2023-03-18T08:22:25.009Z"}},{"id":22,"attributes":{"title":"Kelio įtvaras","typeGroup":"KA2-2","type":"KA2-2","description":"Gaminamas ant individualaus gipsinio modelio iš termoplastinių\nmedžiagų ir (ar) anglies pluošto (su paminkštinimu iš vidinės pusės arba\nbe jo), apima šlaunį ir blauzdą, užsegamas. Kraštai apdirbami taip, kad\napsaugotų nuo trinties. Šlaunies ir blauzdos dalys sujungiamos\nlanksčiaisiais lankstais (2 vnt.), pritvirtintais vidinėje ir išorinėje kelio\nsąnario pusėse. Stabilizuoja kelio sąnarį.","price":606.06,"prices":null,"slug":"kelio-itvaras-KA2-2","isNew":true,"individualyMade":true,"createdAt":"2023-03-18T08:23:49.364Z","updatedAt":"2023-03-30T20:45:36.766Z","publishedAt":"2023-03-18T08:23:50.724Z"}},{"id":23,"attributes":{"title":"Kelio-čiurnos-pėdos įtvaras","typeGroup":"KT1-5","type":"KT1-5","description":"Gaminamas individualiai iš termoplastinių medžiagų ir (ar) anglies\npluošto, užsegamas. Kraštai apdirbami taip, kad apsaugotų nuo trinties.\nApima šlaunį, blauzdą, čiurną ir pėdą. Imobilizuoja kelio ir čiurnos\nsąnarius.","price":225.48,"prices":null,"slug":"kelio-ciurnos-pedos-itvaras-KT1-5","isNew":null,"individualyMade":true,"createdAt":"2023-03-18T08:26:45.489Z","updatedAt":"2023-03-30T20:45:34.570Z","publishedAt":"2023-03-18T08:26:46.581Z"}},{"id":24,"attributes":{"title":"Kelio-kulkšnies-pėdos įtvaras","typeGroup":"KA3-6","type":"KA3-6","description":"Gaminamas ant individualaus gipsinio modelio iš termoplastinių medžiagų,\nanglies pluošto arba odos (su paminkštinimu iš vidinės pusės arba be jo),\nužsegamas. Kraštai apdirbami taip, kad apsaugotų nuo trinties. Apima šlaunį,\nblauzdą ir pėdą. Įtvaro dalys sujungiamos lankstais per kelio sąnarį (su kelio\nsąnario lenkimo reguliuojamąja detale arba be jos – 2 vnt.) ir čiurnos sąnarį (2\nvnt.). Užtikrina sąnarių stabilumą, koreguoja deformacijas ir (ar) išlygina kojų\nilgio skirtumą.","price":974.39,"prices":null,"slug":"kelio-kulksnies-pedos-itvaras-KA3-6","isNew":null,"individualyMade":null,"createdAt":"2023-03-18T08:29:26.438Z","updatedAt":"2023-03-20T21:12:45.640Z","publishedAt":"2023-03-18T08:29:27.601Z"}},{"id":25,"attributes":{"title":"Kaklo įtvaras","typeGroup":"KR0-16","type":"KR0-16","description":"Gaminamas individualiai iš termoplastinių medžiagų ir (ar) anglies\npluošto, užsegamas. Kraštai apdirbami taip, kad apsaugotų nuo trinties.\nApima smakrą. Fiksuoja stuburo kaklinę dalį, riboja kaklo rotacinius\njudesius.","price":28.96,"prices":null,"slug":"kaklo-itvaras-KR0-16","isNew":null,"individualyMade":true,"createdAt":"2023-03-18T08:35:43.950Z","updatedAt":"2023-03-30T20:44:57.941Z","publishedAt":"2023-03-18T08:35:44.899Z"}}],"meta":{"pagination":{"page":1,"pageSize":25,"pageCount":2,"total":34}}}},"__N_SSG":true}